[
    {
        "TREE_ID": "53103",
        "NUM_TAXA": 249,
        "TREE_LENGTH": 7.13059,
        "TREE_DIAMETER": 0.785112,
        "TREE_HEIGHT": 0.611075,
        "BRANCH_LENGTH_MEAN": 0.01437619556451613,
        "BRANCH_LENGTH_VARIANCE": 0.0005985872457131923,
        "IS_INDELIBLE_COMPATIBLE": 0,
        "OVERALL_NUM_ALIGNMENT_SITES": 1746,
        "OVERALL_NUM_PATTERNS": 1230,
        "OVERALL_GAPS": 16.2,
        "INVARIANT_SITES": "None",
        "RAXML_NG": 1,
        "OVERALL_NUM_PARTITIONS": 1,
        "MISSING_DATA_RATE": "None",
        "MODEL": "GTR",
        "ALPHA": 0.423153,
        "RATE_AC": 1.181103,
        "RATE_AG": 3.687188,
        "RATE_AT": 1.285375,
        "RATE_CG": 0.882669,
        "RATE_CT": 4.430873,
        "RATE_GT": 1.0,
        "FREQ_A": 0.209888,
        "FREQ_C": 0.310759,
        "FREQ_G": 0.244795,
        "FREQ_T": 0.234557,
        "NUM_ALIGNMENT_SITES": 1746,
        "NUM_PATTERNS": 1230,
        "GAPS": 16.2,
        "DATA_TYPE": "DNA",
        "RATE_STR": "GTR{1.181103/3.687188/1.285375/0.882669/4.430873/1.000000}",
        "FREQ_STR": "None",
        "PARTITION_NUM": "None",
        "STATIONARY_FREQ_STR": "FU{0.209888/0.310759/0.244795/0.234557}",
        "PROPORTION_INVARIANT_SITES_STR": "None",
        "AMONG_SITE_RATE_HETEROGENEITY_STR": "G4m{0.423153}, partition_0 = 1-1746",
        "ASCERTAINMENT_BIAS_CORRECTION_STR": "None",
        "CUSTOM_CHAR_TO_STATE_MAPPING": "None",
        "PARENT_ID": 53103
    }
]