[
    {
        "TREE_ID": "60544",
        "NUM_TAXA": 55,
        "TREE_LENGTH": 0.075948,
        "TREE_DIAMETER": 0.064535,
        "TREE_HEIGHT": 0.062949,
        "BRANCH_LENGTH_MEAN": 0.0007097943925233645,
        "BRANCH_LENGTH_VARIANCE": 3.199683131581731e-05,
        "IS_INDELIBLE_COMPATIBLE": 0,
        "OVERALL_NUM_ALIGNMENT_SITES": 156880,
        "OVERALL_NUM_PATTERNS": 1900,
        "OVERALL_GAPS": 9.12,
        "INVARIANT_SITES": "None",
        "RAXML_NG": 1,
        "OVERALL_NUM_PARTITIONS": 1,
        "MISSING_DATA_RATE": "None",
        "MODEL": "GTR",
        "ALPHA": 0.020121,
        "RATE_AC": 0.928579,
        "RATE_AG": 1.997211,
        "RATE_AT": 0.786753,
        "RATE_CG": 0.58135,
        "RATE_CT": 1.805194,
        "RATE_GT": 1.0,
        "FREQ_A": 0.301025,
        "FREQ_C": 0.197432,
        "FREQ_G": 0.192503,
        "FREQ_T": 0.30904,
        "NUM_ALIGNMENT_SITES": 156880,
        "NUM_PATTERNS": 1900,
        "GAPS": 9.12,
        "DATA_TYPE": "DNA",
        "RATE_STR": "GTR{0.928579/1.997211/0.786753/0.581350/1.805194/1.000000}",
        "FREQ_STR": "None",
        "PARTITION_NUM": "None",
        "STATIONARY_FREQ_STR": "FU{0.301025/0.197432/0.192503/0.309040}",
        "PROPORTION_INVARIANT_SITES_STR": "None",
        "AMONG_SITE_RATE_HETEROGENEITY_STR": "G4m{0.020121}, partition_0 = 1-156881",
        "ASCERTAINMENT_BIAS_CORRECTION_STR": "None",
        "CUSTOM_CHAR_TO_STATE_MAPPING": "None",
        "PARENT_ID": 60544
    }
]