[
    {
        "TREE_ID": "13133",
        "NUM_TAXA": 32,
        "TREE_LENGTH": 0.271076,
        "TREE_DIAMETER": 0.149782,
        "TREE_HEIGHT": 0.09859,
        "BRANCH_LENGTH_MEAN": 0.004372193548387097,
        "BRANCH_LENGTH_VARIANCE": 0.00010589868048651507,
        "IS_INDELIBLE_COMPATIBLE": 0,
        "OVERALL_NUM_ALIGNMENT_SITES": 1857,
        "OVERALL_NUM_PATTERNS": 242,
        "OVERALL_GAPS": 3.31,
        "INVARIANT_SITES": "None",
        "RAXML_NG": 1,
        "OVERALL_NUM_PARTITIONS": 1,
        "MISSING_DATA_RATE": "None",
        "MODEL": "GTR",
        "ALPHA": 0.152399,
        "RATE_AC": 0.47315,
        "RATE_AG": 10.784559,
        "RATE_AT": 0.542545,
        "RATE_CG": 0.419579,
        "RATE_CT": 9.065321,
        "RATE_GT": 1.0,
        "FREQ_A": 0.324133,
        "FREQ_C": 0.275836,
        "FREQ_G": 0.126519,
        "FREQ_T": 0.273512,
        "NUM_ALIGNMENT_SITES": 1857,
        "NUM_PATTERNS": 242,
        "GAPS": 3.31,
        "DATA_TYPE": "DNA",
        "RATE_STR": "GTR{0.473150/10.784559/0.542545/0.419579/9.065321/1.000000}",
        "FREQ_STR": "None",
        "PARTITION_NUM": "None",
        "STATIONARY_FREQ_STR": "FU{0.324133/0.275836/0.126519/0.273512}",
        "PROPORTION_INVARIANT_SITES_STR": "None",
        "AMONG_SITE_RATE_HETEROGENEITY_STR": "G4m{0.152399}, partition_0 = 1-1857",
        "ASCERTAINMENT_BIAS_CORRECTION_STR": "None",
        "CUSTOM_CHAR_TO_STATE_MAPPING": "None",
        "PARENT_ID": 13133
    }
]