[
    {
        "TREE_ID": "19457",
        "NUM_TAXA": 79,
        "TREE_LENGTH": 0.979675,
        "TREE_DIAMETER": 0.882722,
        "TREE_HEIGHT": 0.867582,
        "BRANCH_LENGTH_MEAN": 0.006320483870967742,
        "BRANCH_LENGTH_VARIANCE": 0.004765298519887725,
        "IS_INDELIBLE_COMPATIBLE": 0,
        "OVERALL_NUM_ALIGNMENT_SITES": 17720,
        "OVERALL_NUM_PATTERNS": 1341,
        "OVERALL_GAPS": 7.75,
        "INVARIANT_SITES": "None",
        "RAXML_NG": 1,
        "OVERALL_NUM_PARTITIONS": 1,
        "MISSING_DATA_RATE": "None",
        "MODEL": "GTR",
        "ALPHA": 0.473994,
        "RATE_AC": 4.492523,
        "RATE_AG": 30.266053,
        "RATE_AT": 9.124657,
        "RATE_CG": 2.591886,
        "RATE_CT": 62.42105,
        "RATE_GT": 1.0,
        "FREQ_A": 0.436014,
        "FREQ_C": 0.091052,
        "FREQ_G": 0.051992,
        "FREQ_T": 0.420941,
        "NUM_ALIGNMENT_SITES": 17720,
        "NUM_PATTERNS": 1341,
        "GAPS": 7.75,
        "DATA_TYPE": "DNA",
        "RATE_STR": "GTR{4.492523/30.266053/9.124657/2.591886/62.421050/1.000000}",
        "FREQ_STR": "None",
        "PARTITION_NUM": "None",
        "STATIONARY_FREQ_STR": "FU{0.436014/0.091052/0.051992/0.420941}",
        "PROPORTION_INVARIANT_SITES_STR": "IU{0.617825}",
        "AMONG_SITE_RATE_HETEROGENEITY_STR": "G4m{0.473994}, partition_0 = 1-17722",
        "ASCERTAINMENT_BIAS_CORRECTION_STR": "None",
        "CUSTOM_CHAR_TO_STATE_MAPPING": "None",
        "PARENT_ID": 19457
    }
]