[
    {
        "TREE_ID": "32204",
        "NUM_TAXA": 51,
        "TREE_LENGTH": 302.039,
        "TREE_DIAMETER": 200.242,
        "TREE_HEIGHT": 200.016,
        "BRANCH_LENGTH_MEAN": 3.050902727272727,
        "BRANCH_LENGTH_VARIANCE": 296.72043358706196,
        "IS_INDELIBLE_COMPATIBLE": 0,
        "OVERALL_NUM_ALIGNMENT_SITES": 723,
        "OVERALL_NUM_PATTERNS": 330,
        "OVERALL_GAPS": 0.59,
        "INVARIANT_SITES": "None",
        "RAXML_NG": 1,
        "OVERALL_NUM_PARTITIONS": 1,
        "MISSING_DATA_RATE": "None",
        "MODEL": "GTR",
        "ALPHA": 0.326006,
        "RATE_AC": 1.31979,
        "RATE_AG": 4.914023,
        "RATE_AT": 2.219654,
        "RATE_CG": 0.364686,
        "RATE_CT": 9.546702,
        "RATE_GT": 1.0,
        "FREQ_A": 0.289562,
        "FREQ_C": 0.191995,
        "FREQ_G": 0.214544,
        "FREQ_T": 0.303899,
        "NUM_ALIGNMENT_SITES": 723,
        "NUM_PATTERNS": 330,
        "GAPS": 0.59,
        "DATA_TYPE": "DNA",
        "RATE_STR": "GTR{1.319790/4.914023/2.219654/0.364686/9.546702/1.000000}",
        "FREQ_STR": "None",
        "PARTITION_NUM": "None",
        "STATIONARY_FREQ_STR": "FU{0.289562/0.191995/0.214544/0.303899}",
        "PROPORTION_INVARIANT_SITES_STR": "IU{0.001495}",
        "AMONG_SITE_RATE_HETEROGENEITY_STR": "G4m{0.326006}, partition_0 = 1-723",
        "ASCERTAINMENT_BIAS_CORRECTION_STR": "None",
        "CUSTOM_CHAR_TO_STATE_MAPPING": "None",
        "PARENT_ID": 32204
    }
]