[
    {
        "TREE_ID": "64778",
        "NUM_TAXA": 143,
        "TREE_LENGTH": 0.822725,
        "TREE_DIAMETER": 0.192906,
        "TREE_HEIGHT": 0.165999,
        "BRANCH_LENGTH_MEAN": 0.0029071554770318023,
        "BRANCH_LENGTH_VARIANCE": 6.725263126652131e-05,
        "IS_INDELIBLE_COMPATIBLE": 0,
        "OVERALL_NUM_ALIGNMENT_SITES": 2705,
        "OVERALL_NUM_PATTERNS": 1597,
        "OVERALL_GAPS": 14.18,
        "INVARIANT_SITES": "None",
        "RAXML_NG": 1,
        "OVERALL_NUM_PARTITIONS": 1,
        "MISSING_DATA_RATE": "None",
        "MODEL": "GTR",
        "ALPHA": 0.68739,
        "RATE_AC": 1.184285,
        "RATE_AG": 4.664432,
        "RATE_AT": 0.805191,
        "RATE_CG": 1.183163,
        "RATE_CT": 4.781913,
        "RATE_GT": 1.0,
        "FREQ_A": 0.30712,
        "FREQ_C": 0.186673,
        "FREQ_G": 0.214988,
        "FREQ_T": 0.29122,
        "NUM_ALIGNMENT_SITES": 2705,
        "NUM_PATTERNS": 1597,
        "GAPS": 14.18,
        "DATA_TYPE": "DNA",
        "RATE_STR": "GTR{1.184285/4.664432/0.805191/1.183163/4.781913/1.000000}",
        "FREQ_STR": "None",
        "PARTITION_NUM": "None",
        "STATIONARY_FREQ_STR": "FU{0.307120/0.186673/0.214988/0.291220}",
        "PROPORTION_INVARIANT_SITES_STR": "None",
        "AMONG_SITE_RATE_HETEROGENEITY_STR": "G4m{0.687390}, partition_0 = 1-2786",
        "ASCERTAINMENT_BIAS_CORRECTION_STR": "None",
        "CUSTOM_CHAR_TO_STATE_MAPPING": "None",
        "PARENT_ID": 64778
    }
]