[
    {
        "TREE_ID": "23931",
        "NUM_TAXA": 52,
        "TREE_LENGTH": 1.141,
        "TREE_DIAMETER": 1.03918,
        "TREE_HEIGHT": 1.00922,
        "BRANCH_LENGTH_MEAN": 0.0112969900990099,
        "BRANCH_LENGTH_VARIANCE": 0.010061955696509901,
        "IS_INDELIBLE_COMPATIBLE": 0,
        "OVERALL_NUM_ALIGNMENT_SITES": 17565,
        "OVERALL_NUM_PATTERNS": 1485,
        "OVERALL_GAPS": 6.66,
        "INVARIANT_SITES": "None",
        "RAXML_NG": 1,
        "OVERALL_NUM_PARTITIONS": 1,
        "MISSING_DATA_RATE": "None",
        "MODEL": "GTR",
        "ALPHA": 0.441447,
        "RATE_AC": 2.394439,
        "RATE_AG": 20.48059,
        "RATE_AT": 5.30721,
        "RATE_CG": 0.796419,
        "RATE_CT": 34.887869,
        "RATE_GT": 1.0,
        "FREQ_A": 0.435166,
        "FREQ_C": 0.091945,
        "FREQ_G": 0.051191,
        "FREQ_T": 0.421697,
        "NUM_ALIGNMENT_SITES": 17565,
        "NUM_PATTERNS": 1485,
        "GAPS": 6.66,
        "DATA_TYPE": "DNA",
        "RATE_STR": "GTR{2.394439/20.480590/5.307210/0.796419/34.887869/1.000000}",
        "FREQ_STR": "None",
        "PARTITION_NUM": "None",
        "STATIONARY_FREQ_STR": "FU{0.435166/0.091945/0.051191/0.421697}",
        "PROPORTION_INVARIANT_SITES_STR": "IU{0.622370}",
        "AMONG_SITE_RATE_HETEROGENEITY_STR": "G4m{0.441447}, partition_0 = 1-17569",
        "ASCERTAINMENT_BIAS_CORRECTION_STR": "None",
        "CUSTOM_CHAR_TO_STATE_MAPPING": "None",
        "PARENT_ID": 23931
    }
]