[
    {
        "TREE_ID": "16109",
        "NUM_TAXA": 125,
        "TREE_LENGTH": 17.3762,
        "TREE_DIAMETER": 2.02648,
        "TREE_HEIGHT": 1.34311,
        "BRANCH_LENGTH_MEAN": 0.07034912955465587,
        "BRANCH_LENGTH_VARIANCE": 0.010911975791186398,
        "IS_INDELIBLE_COMPATIBLE": 0,
        "OVERALL_NUM_ALIGNMENT_SITES": 2251,
        "OVERALL_NUM_PATTERNS": 926,
        "OVERALL_GAPS": 59.85,
        "INVARIANT_SITES": "None",
        "RAXML_NG": 1,
        "OVERALL_NUM_PARTITIONS": 1,
        "MISSING_DATA_RATE": "None",
        "MODEL": "GTR",
        "ALPHA": 0.17922,
        "RATE_AC": 0.947146,
        "RATE_AG": 2.504725,
        "RATE_AT": 1.08899,
        "RATE_CG": 0.455171,
        "RATE_CT": 5.690958,
        "RATE_GT": 1.0,
        "FREQ_A": 0.24635,
        "FREQ_C": 0.25778,
        "FREQ_G": 0.28778,
        "FREQ_T": 0.20809,
        "NUM_ALIGNMENT_SITES": 2251,
        "NUM_PATTERNS": 926,
        "GAPS": 59.85,
        "DATA_TYPE": "DNA",
        "RATE_STR": "GTR{0.947146/2.504725/1.088990/0.455171/5.690958/1.000000}",
        "FREQ_STR": "None",
        "PARTITION_NUM": "None",
        "STATIONARY_FREQ_STR": "FU{0.246350/0.257780/0.287780/0.208090}",
        "PROPORTION_INVARIANT_SITES_STR": "None",
        "AMONG_SITE_RATE_HETEROGENEITY_STR": "G4m{0.179220}, partition_0 = 1-2365",
        "ASCERTAINMENT_BIAS_CORRECTION_STR": "None",
        "CUSTOM_CHAR_TO_STATE_MAPPING": "None",
        "PARENT_ID": 16109
    }
]