[
    {
        "TREE_ID": "70556",
        "NUM_TAXA": 31,
        "TREE_LENGTH": 0.31868,
        "TREE_DIAMETER": 0.297412,
        "TREE_HEIGHT": 0.201965,
        "BRANCH_LENGTH_MEAN": 0.00540135593220339,
        "BRANCH_LENGTH_VARIANCE": 0.0005597785388883694,
        "IS_INDELIBLE_COMPATIBLE": 0,
        "OVERALL_NUM_ALIGNMENT_SITES": 549,
        "OVERALL_NUM_PATTERNS": 61,
        "OVERALL_GAPS": 0.52,
        "INVARIANT_SITES": "None",
        "RAXML_NG": 1,
        "OVERALL_NUM_PARTITIONS": 1,
        "MISSING_DATA_RATE": "None",
        "MODEL": "GTR",
        "ALPHA": 0.020139,
        "RATE_AC": 7.575977,
        "RATE_AG": 9.603497,
        "RATE_AT": 3.05388,
        "RATE_CG": 1.041194,
        "RATE_CT": 5.840267,
        "RATE_GT": 1.0,
        "FREQ_A": 0.311836,
        "FREQ_C": 0.224119,
        "FREQ_G": 0.183437,
        "FREQ_T": 0.280608,
        "NUM_ALIGNMENT_SITES": 549,
        "NUM_PATTERNS": 61,
        "GAPS": 0.52,
        "DATA_TYPE": "DNA",
        "RATE_STR": "GTR{7.575977/9.603497/3.053880/1.041194/5.840267/1.000000}",
        "FREQ_STR": "None",
        "PARTITION_NUM": "None",
        "STATIONARY_FREQ_STR": "FU{0.311836/0.224119/0.183437/0.280608}",
        "PROPORTION_INVARIANT_SITES_STR": "None",
        "AMONG_SITE_RATE_HETEROGENEITY_STR": "G4m{0.020139}, partition_0 = 1-549",
        "ASCERTAINMENT_BIAS_CORRECTION_STR": "None",
        "CUSTOM_CHAR_TO_STATE_MAPPING": "None",
        "PARENT_ID": 70556
    }
]