[
    {
        "TREE_ID": "57602",
        "NUM_TAXA": 107,
        "TREE_LENGTH": 9.74822,
        "TREE_DIAMETER": 0.898246,
        "TREE_HEIGHT": 0.574593,
        "BRANCH_LENGTH_MEAN": 0.046200085308056874,
        "BRANCH_LENGTH_VARIANCE": 0.00233471230189745,
        "IS_INDELIBLE_COMPATIBLE": 1,
        "OVERALL_NUM_ALIGNMENT_SITES": 6251,
        "OVERALL_NUM_PATTERNS": 3777,
        "OVERALL_GAPS": 35.57,
        "INVARIANT_SITES": "None",
        "RAXML_NG": 1,
        "OVERALL_NUM_PARTITIONS": 1,
        "MISSING_DATA_RATE": "None",
        "MODEL": "GTR",
        "ALPHA": 0.237477,
        "RATE_AC": 1.764277,
        "RATE_AG": 2.653064,
        "RATE_AT": 3.547914,
        "RATE_CG": 1.428731,
        "RATE_CT": 8.005072,
        "RATE_GT": 1.0,
        "FREQ_A": 0.252142,
        "FREQ_C": 0.192358,
        "FREQ_G": 0.210177,
        "FREQ_T": 0.345323,
        "NUM_ALIGNMENT_SITES": 6251,
        "NUM_PATTERNS": 3777,
        "GAPS": 35.57,
        "DATA_TYPE": "DNA",
        "RATE_STR": "GTR{1.764277/2.653064/3.547914/1.428731/8.005072/1.000000}",
        "FREQ_STR": "None",
        "PARTITION_NUM": "None",
        "STATIONARY_FREQ_STR": "FU{0.252142/0.192358/0.210177/0.345323}",
        "PROPORTION_INVARIANT_SITES_STR": "None",
        "AMONG_SITE_RATE_HETEROGENEITY_STR": "G4m{0.237477}, partition_0 = 1-6312",
        "ASCERTAINMENT_BIAS_CORRECTION_STR": "None",
        "CUSTOM_CHAR_TO_STATE_MAPPING": "None",
        "PARENT_ID": 57602
    }
]