Partition 0: partition_0
Model: GTR+FO+G4m
Alignment sites / patterns: 3250 / 1786
Gaps: 9.95 %
Invariant sites: 54.15 %
Optimized model parameters:
Partition 0: partition_0
Rate heterogeneity: GAMMA (4 cats, mean),  alpha: 0.469512 (ML),  weights&rates: (0.250000,0.027886) (0.250000,0.231547) (0.250000,0.796751) (0.250000,2.943816)
Base frequencies (ML): 0.305647 0.183835 0.229997 0.280521
Substitution rates (ML): 1.437402 4.524539 0.949361 1.348617 7.135534 1.000000
