[
    {
        "TREE_ID": "40244",
        "NUM_TAXA": 67,
        "TREE_LENGTH": 1.1299,
        "TREE_DIAMETER": 0.383587,
        "TREE_HEIGHT": 0.332534,
        "BRANCH_LENGTH_MEAN": 0.008625190839694657,
        "BRANCH_LENGTH_VARIANCE": 0.0005880249321248385,
        "IS_INDELIBLE_COMPATIBLE": 0,
        "OVERALL_NUM_ALIGNMENT_SITES": 1040,
        "OVERALL_NUM_PATTERNS": 333,
        "OVERALL_GAPS": 0.23,
        "INVARIANT_SITES": "None",
        "RAXML_NG": 1,
        "OVERALL_NUM_PARTITIONS": 1,
        "MISSING_DATA_RATE": "None",
        "MODEL": "GTR",
        "ALPHA": 0.224924,
        "RATE_AC": 0.272638,
        "RATE_AG": 13.881741,
        "RATE_AT": 0.315866,
        "RATE_CG": 0.055051,
        "RATE_CT": 5.122504,
        "RATE_GT": 1.0,
        "FREQ_A": 0.33782,
        "FREQ_C": 0.3644,
        "FREQ_G": 0.072892,
        "FREQ_T": 0.224888,
        "NUM_ALIGNMENT_SITES": 1040,
        "NUM_PATTERNS": 333,
        "GAPS": 0.23,
        "DATA_TYPE": "DNA",
        "RATE_STR": "GTR{0.272638/13.881741/0.315866/0.055051/5.122504/1.000000}",
        "FREQ_STR": "None",
        "PARTITION_NUM": "None",
        "STATIONARY_FREQ_STR": "FU{0.337820/0.364400/0.072892/0.224888}",
        "PROPORTION_INVARIANT_SITES_STR": "None",
        "AMONG_SITE_RATE_HETEROGENEITY_STR": "G4m{0.224924}, partition_0 = 1-1040",
        "ASCERTAINMENT_BIAS_CORRECTION_STR": "None",
        "CUSTOM_CHAR_TO_STATE_MAPPING": "None",
        "PARENT_ID": 40244
    }
]